[
  {
    "type": "delete",
    "url": "api/Account/DeleteAccount",
    "title": "Request Remove user",
    "name": "Delete",
    "group": "Account",
    "header": {
      "examples": [
        {
          "title": "Header-Example:",
          "content": "    {\n      \"Content-Type\": \"application/json; charset=UTF-8\"\n\t    \"Authorization\": \"bearer MTrFwnJ7jHH-y...\"\n    }",
          "type": "json"
        }
      ]
    },
    "success": {
      "examples": [
        {
          "title": "Success-Response:",
          "content": "HTTP/1.1 200 OK\n\"User deleted\"",
          "type": "json"
        }
      ]
    },
    "error": {
      "fields": {
        "Error 4xx": [
          {
            "group": "Error 4xx",
            "optional": false,
            "field": "NotAuthorized",
            "description": "<p>User not enter in system.</p>"
          }
        ]
      },
      "examples": [
        {
          "title": "NotAuthorized:",
          "content": "HTTP/1.1 401 Unauthorized\n{\n  \"message\":\"Authorization has been denied for this request.\",\n}",
          "type": "json"
        }
      ]
    },
    "version": "0.0.0",
    "filename": "D:/Projects/project3/project/DogeProject/WebApi/Controller/AccountController.cs",
    "groupTitle": "Account"
  },
  {
    "type": "post",
    "url": "api/Account/Token",
    "title": "Request Login user",
    "name": "Login",
    "group": "Account",
    "parameter": {
      "fields": {
        "Parameter": [
          {
            "group": "Parameter",
            "type": "String",
            "optional": false,
            "field": "grant_type",
            "description": "<p>Type of value which get token</p>"
          },
          {
            "group": "Parameter",
            "type": "String",
            "optional": false,
            "field": "username",
            "description": "<p>Username user which login.</p>"
          },
          {
            "group": "Parameter",
            "type": "String",
            "optional": false,
            "field": "password",
            "description": "<p>Password name which login.</p>"
          }
        ]
      },
      "examples": [
        {
          "title": "Request-Example:",
          "content": "{\n  grant_type=password&username=Someuser&password=Somepassword\n}",
          "type": "x-www-form-urlencoded"
        }
      ]
    },
    "header": {
      "examples": [
        {
          "title": "Header-Example:",
          "content": "{\n  \"Content-Type\": \"application/x-www-form-urlencoded; charset=UTF-8\"\n}",
          "type": "json"
        }
      ]
    },
    "success": {
      "examples": [
        {
          "title": "Success-Response:",
          "content": "HTTP/1.1 200 OK\n{\n  \"access_token\":\"EDB3VUWC9...\",\n  \"token_type\":\"bearer\",\n  \"expires_in\":86399,\n  \"refresh_token\":\"w4lKg0M...\"\n}",
          "type": "json"
        }
      ]
    },
    "error": {
      "fields": {
        "Error 4xx": [
          {
            "group": "Error 4xx",
            "optional": false,
            "field": "UserNotExist",
            "description": "<p>The user with this username and password don't exists.</p>"
          }
        ]
      },
      "examples": [
        {
          "title": "UserNotExist:",
          "content": "HTTP/1.1 400 Bad Request\n{\n  \"error\":\"invalid_grant\",\n  \"error_description\":\"User with that name and password does not exist\"\n}",
          "type": "json"
        }
      ]
    },
    "version": "0.0.0",
    "filename": "D:/Projects/project3/project/DogeProject/WebApi/Controller/AccountController.cs",
    "groupTitle": "Account"
  },
  {
    "type": "post",
    "url": "api/Account/SignUp",
    "title": "Request Register user",
    "name": "SignUp",
    "group": "Account",
    "parameter": {
      "fields": {
        "Parameter": [
          {
            "group": "Parameter",
            "type": "String",
            "optional": false,
            "field": "UserName",
            "description": "<p>User unique username.</p>"
          },
          {
            "group": "Parameter",
            "type": "String",
            "optional": false,
            "field": "Password",
            "description": "<p>User password.</p>"
          }
        ]
      },
      "examples": [
        {
          "title": "Request-Example:",
          "content": "{\n  \"UserName\": \"Someuser\",\n  \"Password\": \"Somepassword\"\n}",
          "type": "json"
        }
      ]
    },
    "header": {
      "examples": [
        {
          "title": "Header-Example:",
          "content": "{\n  \"Content-Type\": \"application/json; charset=UTF-8\"\n}",
          "type": "json"
        }
      ]
    },
    "success": {
      "examples": [
        {
          "title": "Success-Response:",
          "content": "HTTP/1.1 200 OK\n\"You successfully registered\"",
          "type": "json"
        }
      ]
    },
    "error": {
      "fields": {
        "Error 4xx": [
          {
            "group": "Error 4xx",
            "optional": false,
            "field": "UserAlreadyExist",
            "description": "<p>The user with this username already exists.</p>"
          }
        ]
      },
      "examples": [
        {
          "title": "UserExists:",
          "content": "HTTP/1.1 500 Internal Server Error\n{\n  \"message\":\"An error has occurred.\",\n  \"exceptionMessage\":\"User with that username {username} is already exist\",\n  \"exceptionType\":\"System.Exception\",\n  \"stackTrace\":null\n}",
          "type": "json"
        },
        {
          "title": "UserNameLength:",
          "content": "HTTP/1.1 500 Internal Server Error\n{\n  \"message\":\"An error has occurred.\",\n  \"exceptionMessage\":\"Username length should not be less than 6 characters and more than 20\\nPassword should be of length 6\",\n  \"exceptionType\":\"System.Exception\",\n  \"stackTrace\":null\n}",
          "type": "json"
        },
        {
          "title": "PasswordLength:",
          "content": "HTTP/1.1 500 Internal Server Error\n{\n  \"message\":\"An error has occurred.\",\n  \"exceptionMessage\":\"Password should be of length 6\",\n  \"exceptionType\":\"System.Exception\",\n  \"stackTrace\":null\n}",
          "type": "json"
        }
      ]
    },
    "version": "0.0.0",
    "filename": "D:/Projects/project3/project/DogeProject/WebApi/Controller/AccountController.cs",
    "groupTitle": "Account"
  },
  {
    "type": "get",
    "url": "api/FriendShip/GetCommonFriends/:IdFriend",
    "title": "Request Get common friend with user",
    "name": "GetCommonFriends",
    "group": "FriendShip",
    "examples": [
      {
        "title": "Example usage:",
        "content": "http://localhost:49768/api/FriendShip/GetCommonFriends/32",
        "type": "json"
      }
    ],
    "parameter": {
      "fields": {
        "Parameter": [
          {
            "group": "Parameter",
            "type": "number",
            "optional": false,
            "field": "idFriend",
            "description": "<p>Id user wit which get common friedns.</p>"
          }
        ]
      }
    },
    "header": {
      "examples": [
        {
          "title": "Header-Example:",
          "content": "    {\n      \"Content-Type\": \"application/json; charset=UTF-8\",\n\t    \"Authorization\": \"bearer MTrFwnJ7jHH-y...\"\n    }",
          "type": "json"
        }
      ]
    },
    "success": {
      "examples": [
        {
          "title": "Success-Response:",
          "content": "HTTP/1.1 200 OK\n[\n  {\n      \"userId\": 23,\n      \"userName\": \"SomeUser1\"\n  },\n  {\n      \"userId\": 56,\n      \"userName\": \"SomeUser2\"\n  }\n]",
          "type": "json"
        }
      ]
    },
    "error": {
      "fields": {
        "Error 4xx": [
          {
            "group": "Error 4xx",
            "optional": false,
            "field": "NotAuthorized",
            "description": "<p>User not enter in system.</p>"
          }
        ]
      },
      "examples": [
        {
          "title": "NotAuthorized:",
          "content": "HTTP/1.1 401 Unauthorized\n{\n  \"message\":\"Authorization has been denied for this request.\",\n}",
          "type": "json"
        }
      ]
    },
    "version": "0.0.0",
    "filename": "D:/Projects/project3/project/DogeProject/WebApi/Controller/FriendShipController.cs",
    "groupTitle": "FriendShip"
  },
  {
    "type": "get",
    "url": "api/FriendShip/GetCountAndFriendsPath/:IdFriend",
    "title": "Request Get count path and result data to user",
    "name": "GetCountAndFriendsPath",
    "group": "FriendShip",
    "examples": [
      {
        "title": "Example usage:",
        "content": "http://localhost:49768/api/FriendShip/GetCountAndFriendsPath/41",
        "type": "json"
      }
    ],
    "parameter": {
      "fields": {
        "Parameter": [
          {
            "group": "Parameter",
            "type": "number",
            "optional": false,
            "field": "idUser",
            "description": "<p>Id user wit which get path and result data.</p>"
          }
        ]
      }
    },
    "header": {
      "examples": [
        {
          "title": "Header-Example:",
          "content": "    {\n      \"Content-Type\": \"application/json; charset=UTF-8\",\n\t    \"Authorization\": \"bearer MTrFwnJ7jHH-y...\"\n    }",
          "type": "json"
        }
      ]
    },
    "success": {
      "examples": [
        {
          "title": "Success-Response:",
          "content": "HTTP/1.1 200 OK\n[\n  {\n      \"userId\": 23,\n      \"userName\": \"SomeUser1\"\n  },\n  {\n      \"userId\": 56,\n      \"userName\": \"SomeUser2\"\n  },\n]",
          "type": "json"
        }
      ]
    },
    "error": {
      "fields": {
        "Error 4xx": [
          {
            "group": "Error 4xx",
            "optional": false,
            "field": "NotAuthorized",
            "description": "<p>User not enter in system.</p>"
          }
        ]
      },
      "examples": [
        {
          "title": "NotAuthorized:",
          "content": "HTTP/1.1 401 Unauthorized\n{\n  \"message\":\"Authorization has been denied for this request.\",\n}",
          "type": "json"
        }
      ]
    },
    "version": "0.0.0",
    "filename": "D:/Projects/project3/project/DogeProject/WebApi/Controller/FriendShipController.cs",
    "groupTitle": "FriendShip"
  },
  {
    "type": "get",
    "url": "api/FriendShip/GetCountPath/:IdFriend",
    "title": "Request Get count path to user",
    "name": "GetCountPath",
    "group": "FriendShip",
    "examples": [
      {
        "title": "Example usage:",
        "content": "http://localhost:49768/api/FriendShip/GetCountPath/5",
        "type": "json"
      }
    ],
    "parameter": {
      "fields": {
        "Parameter": [
          {
            "group": "Parameter",
            "type": "number",
            "optional": false,
            "field": "idFriend",
            "description": "<p>Id user wit which get count path.</p>"
          }
        ]
      }
    },
    "header": {
      "examples": [
        {
          "title": "Header-Example:",
          "content": "    {\n      \"Content-Type\": \"application/json; charset=UTF-8\",\n\t    \"Authorization\": \"bearer MTrFwnJ7jHH-y...\"\n    }",
          "type": "json"
        }
      ]
    },
    "success": {
      "examples": [
        {
          "title": "Success-Response:",
          "content": "HTTP/1.1 200 OK\n4",
          "type": "json"
        }
      ]
    },
    "error": {
      "fields": {
        "Error 4xx": [
          {
            "group": "Error 4xx",
            "optional": false,
            "field": "NotAuthorized",
            "description": "<p>User not enter in system.</p>"
          }
        ]
      },
      "examples": [
        {
          "title": "NotAuthorized:",
          "content": "HTTP/1.1 401 Unauthorized\n{\n  \"message\":\"Authorization has been denied for this request.\",\n}",
          "type": "json"
        }
      ]
    },
    "version": "0.0.0",
    "filename": "D:/Projects/project3/project/DogeProject/WebApi/Controller/FriendShipController.cs",
    "groupTitle": "FriendShip"
  },
  {
    "type": "get",
    "url": "api/FriendShip/GetCurrentUserFriends",
    "title": "Request Get current user friends",
    "name": "GetCurrentUserFriends",
    "group": "FriendShip",
    "examples": [
      {
        "title": "Example usage:",
        "content": "http://localhost:49768/api/FriendShip/GetCurrentUserFriends",
        "type": "json"
      }
    ],
    "header": {
      "examples": [
        {
          "title": "Header-Example:",
          "content": "    {\n      \"Content-Type\": \"application/json; charset=UTF-8\",\n\t    \"Authorization\": \"bearer MTrFwnJ7jHH-y...\"\n    }",
          "type": "json"
        }
      ]
    },
    "success": {
      "examples": [
        {
          "title": "Success-Response:",
          "content": "HTTP/1.1 200 OK\n[\n  {\n      \"userId\": 23,\n      \"userName\": \"SomeUser1\"\n  },\n  {\n      \"userId\": 56,\n      \"userName\": \"SomeUser2\"\n  },\n]",
          "type": "json"
        }
      ]
    },
    "error": {
      "fields": {
        "Error 4xx": [
          {
            "group": "Error 4xx",
            "optional": false,
            "field": "NotAuthorized",
            "description": "<p>User not enter in system.</p>"
          }
        ]
      },
      "examples": [
        {
          "title": "NotAuthorized:",
          "content": "HTTP/1.1 401 Unauthorized\n{\n  \"message\":\"Authorization has been denied for this request.\",\n}",
          "type": "json"
        }
      ]
    },
    "version": "0.0.0",
    "filename": "D:/Projects/project3/project/DogeProject/WebApi/Controller/FriendShipController.cs",
    "groupTitle": "FriendShip"
  },
  {
    "type": "get",
    "url": "api/FriendShip/GetUserFriends/:IdFriend",
    "title": "Request Get friends of user",
    "name": "GetUserFriends",
    "group": "FriendShip",
    "examples": [
      {
        "title": "Example usage:",
        "content": "http://localhost:49768/api/FriendShip/GetUserFriends/46",
        "type": "json"
      }
    ],
    "parameter": {
      "fields": {
        "Parameter": [
          {
            "group": "Parameter",
            "type": "number",
            "optional": false,
            "field": "idUser",
            "description": "<p>Id user wit which get friends.</p>"
          }
        ]
      }
    },
    "header": {
      "examples": [
        {
          "title": "Header-Example:",
          "content": "    {\n      \"Content-Type\": \"application/json; charset=UTF-8\",\n\t    \"Authorization\": \"bearer MTrFwnJ7jHH-y...\"\n    }",
          "type": "json"
        }
      ]
    },
    "success": {
      "examples": [
        {
          "title": "Success-Response:",
          "content": "HTTP/1.1 200 OK\n[\n  {\n      \"userId\": 23,\n      \"userName\": \"SomeUser1\"\n  },\n  {\n      \"userId\": 56,\n      \"userName\": \"SomeUser2\"\n  },\n]",
          "type": "json"
        }
      ]
    },
    "error": {
      "fields": {
        "Error 4xx": [
          {
            "group": "Error 4xx",
            "optional": false,
            "field": "NotAuthorized",
            "description": "<p>User not enter in system.</p>"
          }
        ]
      },
      "examples": [
        {
          "title": "NotAuthorized:",
          "content": "HTTP/1.1 401 Unauthorized\n{\n  \"message\":\"Authorization has been denied for this request.\",\n}",
          "type": "json"
        }
      ]
    },
    "version": "0.0.0",
    "filename": "D:/Projects/project3/project/DogeProject/WebApi/Controller/FriendShipController.cs",
    "groupTitle": "FriendShip"
  },
  {
    "type": "get",
    "url": "api/Message/GetCurrentDialogs",
    "title": "Request Get cuurent user dialog",
    "name": "GetCurrentDialogs",
    "group": "Message",
    "examples": [
      {
        "title": "Example usage:",
        "content": "http://localhost:49768/api/Message/GetCurrentDialogs",
        "type": "json"
      }
    ],
    "header": {
      "examples": [
        {
          "title": "Header-Example:",
          "content": "    {\n      \"Content-Type\": \"application/json; charset=UTF-8\",\n\t    \"Authorization\": \"bearer MTrFwnJ7jHH-y...\"\n    }",
          "type": "json"
        }
      ]
    },
    "success": {
      "examples": [
        {
          "title": "Success-Response:",
          "content": "HTTP/1.1 200 OK\n  [\n      {\n          \"messageId\": 23,\n          \"fromUser\": \"SomeUser1\",\n          \"toUser\": \"Someuser2\",\n          \"message\": \"Hello my friend\",\n          \"timeOfSending\": \"2016-05-25T13:10:00\"\n      },\n      {\n          \"messageId\": 29,\n          \"fromUser\": \"SomeUser5\",\n          \"toUser\": \"Someuser3\",\n          \"message\": \"How are you\",\n          \"timeOfSending\": \"2016-05-25T13:10:00\"\n      }\n  ]",
          "type": "json"
        }
      ]
    },
    "error": {
      "fields": {
        "Error 4xx": [
          {
            "group": "Error 4xx",
            "optional": false,
            "field": "NotAuthorized",
            "description": "<p>User not enter in system.</p>"
          }
        ]
      },
      "examples": [
        {
          "title": "NotAuthorized:",
          "content": "HTTP/1.1 401 Unauthorized\n{\n  \"message\":\"Authorization has been denied for this request.\",\n}",
          "type": "json"
        }
      ]
    },
    "version": "0.0.0",
    "filename": "D:/Projects/project3/project/DogeProject/WebApi/Controller/MessageController.cs",
    "groupTitle": "Message"
  },
  {
    "type": "get",
    "url": "api/Message/GetDialog:fromUser/:toUser",
    "title": "Request Get dialog between users",
    "name": "GetDialog",
    "group": "Message",
    "parameter": {
      "fields": {
        "Parameter": [
          {
            "group": "Parameter",
            "type": "string",
            "optional": false,
            "field": "fromUser",
            "description": "<p>UserName of user from message.</p>"
          },
          {
            "group": "Parameter",
            "type": "string",
            "optional": false,
            "field": "toUser",
            "description": "<p>UserName of user to message.</p>"
          }
        ]
      }
    },
    "examples": [
      {
        "title": "Example usage:",
        "content": "http://localhost:49768/api/Message/GetDialog/someuser1/someuser2",
        "type": "json"
      }
    ],
    "header": {
      "examples": [
        {
          "title": "Header-Example:",
          "content": "    {\n      \"Content-Type\": \"application/json; charset=UTF-8\",\n\t    \"Authorization\": \"bearer MTrFwnJ7jHH-y...\"\n    }",
          "type": "json"
        }
      ]
    },
    "success": {
      "examples": [
        {
          "title": "Success-Response:",
          "content": "HTTP/1.1 200 OK\n  [\n      {\n          \"messageId\": 23,\n          \"fromUser\": \"SomeUser1\",\n          \"toUser\": \"Someuser2\",\n          \"message\": \"Hello my friend\",\n          \"timeOfSending\": \"2016-05-25T13:10:00\"\n      },\n      {\n          \"messageId\": 29,\n          \"fromUser\": \"SomeUser5\",\n          \"toUser\": \"Someuser3\",\n          \"message\": \"How are you\",\n          \"timeOfSending\": \"2016-05-25T13:10:00\"\n      }\n  ]",
          "type": "json"
        }
      ]
    },
    "error": {
      "fields": {
        "Error 4xx": [
          {
            "group": "Error 4xx",
            "optional": false,
            "field": "NotAuthorized",
            "description": "<p>User not enter in system.</p>"
          }
        ]
      },
      "examples": [
        {
          "title": "NotAuthorized:",
          "content": "HTTP/1.1 401 Unauthorized\n{\n  \"message\":\"Authorization has been denied for this request.\",\n}",
          "type": "json"
        }
      ]
    },
    "version": "0.0.0",
    "filename": "D:/Projects/project3/project/DogeProject/WebApi/Controller/MessageController.cs",
    "groupTitle": "Message"
  },
  {
    "type": "get",
    "url": "api/Message/GetDialogFromDate:fromUser/:toUser/:fromDate",
    "title": "Request Get dialog between users from date",
    "name": "GetDialogFromDate",
    "group": "Message",
    "parameter": {
      "fields": {
        "Parameter": [
          {
            "group": "Parameter",
            "type": "string",
            "optional": false,
            "field": "fromUser",
            "description": "<p>UserName of user from message.</p>"
          },
          {
            "group": "Parameter",
            "type": "string",
            "optional": false,
            "field": "toUser",
            "description": "<p>UserName of user to message.</p>"
          },
          {
            "group": "Parameter",
            "type": "number",
            "optional": false,
            "field": "fromDate",
            "description": "<p>Time to get messages.</p>"
          }
        ]
      }
    },
    "examples": [
      {
        "title": "Example usage:",
        "content": "http://localhost:49768/api/Message/GetDialogFromDate/someuser1/someuser2/23657285635",
        "type": "json"
      }
    ],
    "header": {
      "examples": [
        {
          "title": "Header-Example:",
          "content": "    {\n      \"Content-Type\": \"application/json; charset=UTF-8\",\n\t    \"Authorization\": \"bearer MTrFwnJ7jHH-y...\"\n    }",
          "type": "json"
        }
      ]
    },
    "success": {
      "examples": [
        {
          "title": "Success-Response:",
          "content": "HTTP/1.1 200 OK\n  [\n      {\n          \"messageId\": 23,\n          \"fromUser\": \"SomeUser1\",\n          \"toUser\": \"Someuser2\",\n          \"message\": \"Hello my friend\",\n          \"timeOfSending\": \"2016-05-25T13:10:00\"\n      },\n      {\n          \"messageId\": 29,\n          \"fromUser\": \"SomeUser5\",\n          \"toUser\": \"Someuser3\",\n          \"message\": \"How are you\",\n          \"timeOfSending\": \"2016-05-25T13:10:00\"\n      }\n  ]",
          "type": "json"
        }
      ]
    },
    "error": {
      "fields": {
        "Error 4xx": [
          {
            "group": "Error 4xx",
            "optional": false,
            "field": "NotAuthorized",
            "description": "<p>User not enter in system.</p>"
          }
        ]
      },
      "examples": [
        {
          "title": "NotAuthorized:",
          "content": "HTTP/1.1 401 Unauthorized\n{\n  \"message\":\"Authorization has been denied for this request.\",\n}",
          "type": "json"
        }
      ]
    },
    "version": "0.0.0",
    "filename": "D:/Projects/project3/project/DogeProject/WebApi/Controller/MessageController.cs",
    "groupTitle": "Message"
  },
  {
    "type": "post",
    "url": "api/Message/SendBotMessage",
    "title": "Request Post message to bot",
    "name": "SendBotMessage",
    "group": "Message",
    "parameter": {
      "fields": {
        "Parameter": [
          {
            "group": "Parameter",
            "type": "String",
            "optional": false,
            "field": "Message",
            "description": "<p>User message.</p>"
          }
        ]
      },
      "examples": [
        {
          "title": "Request-Example:",
          "content": "{\n   hello\n}",
          "type": "text"
        }
      ]
    },
    "examples": [
      {
        "title": "Example usage:",
        "content": "http://localhost:49768/api/Message/SendBotMessage",
        "type": "json"
      }
    ],
    "header": {
      "examples": [
        {
          "title": "Header-Example:",
          "content": "    {\n      \"Content-Type\": \"application/json; charset=UTF-8\",\n\t    \"Authorization\": \"bearer MTrFwnJ7jHH-y...\"\n    }",
          "type": "text"
        }
      ]
    },
    "success": {
      "examples": [
        {
          "title": "Success-Response:",
          "content": "HTTP/1.1 200 OK\n{\n  \"There used to be a street named after Chuck Norris, but it was changed because nobody crosses Chuck Norris and lives\"\n}",
          "type": "json"
        }
      ]
    },
    "error": {
      "fields": {
        "Error 4xx": [
          {
            "group": "Error 4xx",
            "optional": false,
            "field": "NotAuthorized",
            "description": "<p>User not enter in system.</p>"
          }
        ]
      },
      "examples": [
        {
          "title": "NotAuthorized:",
          "content": "HTTP/1.1 401 Unauthorized\n{\n  \"message\":\"Authorization has been denied for this request.\",\n}",
          "type": "json"
        }
      ]
    },
    "version": "0.0.0",
    "filename": "D:/Projects/project3/project/DogeProject/WebApi/Controller/MessageController.cs",
    "groupTitle": "Message"
  },
  {
    "type": "post",
    "url": "api/Message/SendMessage",
    "title": "Request Post message to other user",
    "name": "SendMessage",
    "group": "Message",
    "parameter": {
      "fields": {
        "Parameter": [
          {
            "group": "Parameter",
            "type": "string",
            "optional": false,
            "field": "fromUser",
            "description": "<p>UserName of user from message.</p>"
          },
          {
            "group": "Parameter",
            "type": "string",
            "optional": false,
            "field": "toUser",
            "description": "<p>UserName of user to message.</p>"
          },
          {
            "group": "Parameter",
            "type": "string",
            "optional": false,
            "field": "message",
            "description": "<p>Test message.</p>"
          }
        ]
      },
      "examples": [
        {
          "title": "Request-Example:",
          "content": "{\n    \"fromUser\": \"Someuser1\",\n    \"toUser\": \"Someuser2\",   \n    \"message\": \"Hello\",\n}",
          "type": "text"
        }
      ]
    },
    "examples": [
      {
        "title": "Example usage:",
        "content": "http://localhost:49768/api/Message/SendMessage",
        "type": "json"
      }
    ],
    "header": {
      "examples": [
        {
          "title": "Header-Example:",
          "content": "    {\n      \"Content-Type\": \"application/json; charset=UTF-8\",\n\t    \"Authorization\": \"bearer MTrFwnJ7jHH-y...\"\n    }",
          "type": "text"
        }
      ]
    },
    "success": {
      "examples": [
        {
          "title": "Success-Response:",
          "content": "HTTP/1.1 200 OK",
          "type": "json"
        }
      ]
    },
    "error": {
      "fields": {
        "Error 4xx": [
          {
            "group": "Error 4xx",
            "optional": false,
            "field": "NotAuthorized",
            "description": "<p>User not enter in system.</p>"
          }
        ]
      },
      "examples": [
        {
          "title": "NotAuthorized:",
          "content": "HTTP/1.1 401 Unauthorized\n{\n  \"message\":\"Authorization has been denied for this request.\",\n}",
          "type": "json"
        }
      ]
    },
    "version": "0.0.0",
    "filename": "D:/Projects/project3/project/DogeProject/WebApi/Controller/MessageController.cs",
    "groupTitle": "Message"
  },
  {
    "type": "get",
    "url": "api/Users/GetCurrentUser",
    "title": "Request Get current user",
    "name": "GetCurrentUser",
    "group": "User",
    "examples": [
      {
        "title": "Example usage:",
        "content": "http://localhost:49768/api/User/GetCurrentUser",
        "type": "json"
      }
    ],
    "header": {
      "examples": [
        {
          "title": "Header-Example:",
          "content": "    {\n      \"Content-Type\": \"application/json; charset=UTF-8\",\n\t    \"Authorization\": \"bearer MTrFwnJ7jHH-y...\"\n    }",
          "type": "json"
        }
      ]
    },
    "success": {
      "examples": [
        {
          "title": "Success-Response:",
          "content": "HTTP/1.1 200 OK\n  {\n      \"userId\": 23,\n      \"userName\": \"SomeUser1\"\n  }",
          "type": "json"
        }
      ]
    },
    "error": {
      "fields": {
        "Error 4xx": [
          {
            "group": "Error 4xx",
            "optional": false,
            "field": "NotAuthorized",
            "description": "<p>User not enter in system.</p>"
          }
        ]
      },
      "examples": [
        {
          "title": "NotAuthorized:",
          "content": "HTTP/1.1 401 Unauthorized\n{\n  \"message\":\"Authorization has been denied for this request.\",\n}",
          "type": "json"
        }
      ]
    },
    "version": "0.0.0",
    "filename": "D:/Projects/project3/project/DogeProject/WebApi/Controller/UserController.cs",
    "groupTitle": "User"
  },
  {
    "type": "get",
    "url": "api/Users/GetUser/:idUser",
    "title": "Request Get user by id",
    "name": "GetUser",
    "group": "User",
    "parameter": {
      "fields": {
        "Parameter": [
          {
            "group": "Parameter",
            "type": "number",
            "optional": false,
            "field": "idUser",
            "description": "<p>Id user to get.</p>"
          }
        ]
      }
    },
    "examples": [
      {
        "title": "Example usage:",
        "content": "http://localhost:49768/api/User/GetUser/23",
        "type": "json"
      }
    ],
    "header": {
      "examples": [
        {
          "title": "Header-Example:",
          "content": "    {\n      \"Content-Type\": \"application/json; charset=UTF-8\",\n\t    \"Authorization\": \"bearer MTrFwnJ7jHH-y...\"\n    }",
          "type": "json"
        }
      ]
    },
    "success": {
      "examples": [
        {
          "title": "Success-Response:",
          "content": "HTTP/1.1 200 OK\n  {\n      \"userId\": 23,\n      \"userName\": \"SomeUser1\"\n  }",
          "type": "json"
        }
      ]
    },
    "error": {
      "fields": {
        "Error 4xx": [
          {
            "group": "Error 4xx",
            "optional": false,
            "field": "NotAuthorized",
            "description": "<p>User not enter in system.</p>"
          }
        ]
      },
      "examples": [
        {
          "title": "NotAuthorized:",
          "content": "HTTP/1.1 401 Unauthorized\n{\n  \"message\":\"Authorization has been denied for this request.\",\n}",
          "type": "json"
        }
      ]
    },
    "version": "0.0.0",
    "filename": "D:/Projects/project3/project/DogeProject/WebApi/Controller/UserController.cs",
    "groupTitle": "User"
  },
  {
    "type": "get",
    "url": "api/Users/GetUserByUserName/:username",
    "title": "Request Get user by username",
    "name": "GetUserByUserName",
    "group": "User",
    "parameter": {
      "fields": {
        "Parameter": [
          {
            "group": "Parameter",
            "type": "string",
            "optional": false,
            "field": "UserName",
            "description": "<p>Username user to get.</p>"
          }
        ]
      }
    },
    "examples": [
      {
        "title": "Example usage:",
        "content": "http://localhost:49768/api/User/GetUserByUserName/someuser",
        "type": "json"
      }
    ],
    "header": {
      "examples": [
        {
          "title": "Header-Example:",
          "content": "    {\n      \"Content-Type\": \"application/json; charset=UTF-8\",\n\t    \"Authorization\": \"bearer MTrFwnJ7jHH-y...\"\n    }",
          "type": "json"
        }
      ]
    },
    "success": {
      "examples": [
        {
          "title": "Success-Response:",
          "content": "HTTP/1.1 200 OK\n  {\n      \"userId\": 23,\n      \"userName\": \"someuser\"\n  }",
          "type": "json"
        }
      ]
    },
    "error": {
      "fields": {
        "Error 4xx": [
          {
            "group": "Error 4xx",
            "optional": false,
            "field": "NotAuthorized",
            "description": "<p>User not enter in system.</p>"
          }
        ]
      },
      "examples": [
        {
          "title": "NotAuthorized:",
          "content": "HTTP/1.1 401 Unauthorized\n{\n  \"message\":\"Authorization has been denied for this request.\",\n}",
          "type": "json"
        }
      ]
    },
    "version": "0.0.0",
    "filename": "D:/Projects/project3/project/DogeProject/WebApi/Controller/UserController.cs",
    "groupTitle": "User"
  },
  {
    "type": "get",
    "url": "api/Users/GetUsers",
    "title": "Request Get users",
    "name": "GetUsers",
    "group": "User",
    "examples": [
      {
        "title": "Example usage:",
        "content": "http://localhost:49768/api/User/GetUsers",
        "type": "json"
      }
    ],
    "header": {
      "examples": [
        {
          "title": "Header-Example:",
          "content": "    {\n      \"Content-Type\": \"application/json; charset=UTF-8\",\n\t    \"Authorization\": \"bearer MTrFwnJ7jHH-y...\"\n    }",
          "type": "json"
        }
      ]
    },
    "success": {
      "examples": [
        {
          "title": "Success-Response:",
          "content": "HTTP/1.1 200 OK\n[\n  {\n      \"userId\": 23,\n      \"userName\": \"SomeUser1\"\n  },\n  {\n      \"userId\": 56,\n      \"userName\": \"SomeUser2\"\n  },\n]",
          "type": "json"
        }
      ]
    },
    "error": {
      "fields": {
        "Error 4xx": [
          {
            "group": "Error 4xx",
            "optional": false,
            "field": "NotAuthorized",
            "description": "<p>User not enter in system.</p>"
          }
        ]
      },
      "examples": [
        {
          "title": "NotAuthorized:",
          "content": "HTTP/1.1 401 Unauthorized\n{\n  \"message\":\"Authorization has been denied for this request.\",\n}",
          "type": "json"
        }
      ]
    },
    "version": "0.0.0",
    "filename": "D:/Projects/project3/project/DogeProject/WebApi/Controller/UserController.cs",
    "groupTitle": "User"
  }
]
